/* XPM */
/* Borrowed from kivio icons */
static const char *icon_zoom_in[] = {
"16 16 6 1",
"  c Gray0",
". c #939393",
"X c Gray63",
"o c #aeaeae",
"O c None",
"+ c Gray100",
"OOOo    XXoOOOOO",
"Oo  ++++  XoOOOO",
"O ++++++++ XoOOO",
"o +++  +++ XXoOO",
" ++++  ++++ XoOO",
" ++      ++ XoOO",
" ++      ++ XoOO",
" ++++  ++++ XoOO",
"o +++  +++ .oOOO",
"O ++++++++ .oOOO",
"Oo  ++++   .oOOO",
"OOOo    O   XoOO",
"OOOOOOOOOO   XoO",
"OOOOOOOOOOO   XO",
"OOOOOOOOOOOO   O",
"OOOOOOOOOOOOO  O"
};
